scripts/test_vcds/riscv-mini_BrCondTester.vcd
$version Generated by VerilatedVcd $end
$date Tue May 11 18:34:21 2021
 $end
$timescale 1ps $end

 $scope module TOP $end
  $var wire  1 3 clock $end
  $var wire  1 4 reset $end
  $scope module BrCondTester $end
   $var wire  1 3 clock $end
   $var wire  6 ( cntr [5:0] $end
   $var wire  3 % ctrl_io_br_type [2:0] $end
   $var wire 32 ' ctrl_io_inst [31:0] $end
   $var wire  1 ) done $end
   $var wire  3 % dut_io_br_type [2:0] $end
   $var wire 32 # dut_io_rs1 [31:0] $end
   $var wire 32 $ dut_io_rs2 [31:0] $end
   $var wire  1 & dut_io_taken $end
   $var wire  1 * out $end
   $var wire  1 4 reset $end
   $scope module ctrl $end
    $var wire  3 % io_br_type [2:0] $end
    $var wire 32 ' io_inst [31:0] $end
   $upscope $end
   $scope module dut $end
    $var wire 32 + diff [31:0] $end
    $var wire  1 - eq $end
    $var wire  1 1 ge $end
    $var wire  1 2 geu $end
    $var wire  3 % io_br_type [2:0] $end
    $var wire 32 # io_rs1 [31:0] $end
    $var wire 32 $ io_rs2 [31:0] $end
    $var wire  1 & io_taken $end
    $var wire  1 . isSameSign $end
    $var wire  1 / lt $end
    $var wire  1 0 ltu $end
    $var wire  1 , neq $end
   $upscope $end
  $upscope $end
 $upscope $end
$enddefinitions $end


#0
b10011010110100100010010100111111 #
b00011100000000011100011011100111 $
b011 %
0&
b00000000000000000000000001100011 '
b000000 (
0)
0*
b01111110110100000101111001011000 +
1,
0-
0.
1/
00
01
12
03
14
#1
13
#2
#3
#4
#5
#6
03
#7
#8
#9
#10
#11
b11110110110100100000001101101010 #
b01000101011011001010100101101010 $
b110 %
1&
b00000000000000000001000001100011 '
b000001 (
1*
b10110001011001010101101000000000 +
13
04
#12
#13
#14
#15
#16
03
#17
#18
#19
#20
#21
b00000001111001011100111001111110 #
b01010011011101110000010011111100 $
b010 %
b00000000000000000100000001100011 '
b000010 (
b10101110011011101100100110000010 +
1.
10
02
13
#22
#23
#24
#25
#26
03
#27
#28
#29
#30
#31
b00100110100001110001000010110001 #
b11010111100111101000110010000101 $
b101 %
b00000000000000000101000001100011 '
b000011 (
b01001110111010001000010000101100 +
0.
0/
11
13
#32
#33
#34
#35
#36
03
#37
#38
#39
#40
#41
b10000000100101000110010010111001 #
b11111110000101101010000000110111 $
b001 %
b00000000000000000110000001100011 '
b000100 (
b10000010011111011100010010000010 +
1.
1/
01
13
#42
#43
#44
#45
#46
03
#47
#48
#49
#50
#51
b11111000110100110101010011101001 #
b01011111110000011100111100011111 $
b100 %
b00000000000000000111000001100011 '
b000101 (
b10011001000100011000010111001010 +
0.
00
12
13
#52
#53
#54
#55
#56
03
#57
#58
#59
#60
#61
b10001101000011110110100010001110 #
b10010011010011010110001100000010 $
b011 %
0&
b00000000000000000000000001100011 '
b000110 (
0*
b11111001110000100000010110001100 +
1.
10
02
13
#62
#63
#64
#65
#66
03
#67
#68
#69
#70
#71
b11100011011110011000101010010101 #
b10101101101000001101001000000111 $
b110 %
1&
b00000000000000000001000001100011 '
b000111 (
1*
b00110101110110001011100010001110 +
0/
00
11
12
13
#72
#73
#74
#75
#76
03
#77
#78
#79
#80
#81
b00011010000101001111000110011011 #
b11111101011110011011000011110010 $
b010 %
0&
b00000000000000000100000001100011 '
b001000 (
0*
b00011100100110110100000010101001 +
0.
10
02
13
#82
#83
#84
#85
#86
03
#87
#88
#89
#90
#91
b11110111111101111011110001110000 #
b11101001110001001100111000011111 $
b101 %
1&
b00000000000000000101000001100011 '
b001001 (
1*
b00001110001100101110111001010001 +
1.
00
12
13
#92
#93
#94
#95
#96
03
#97
#98
#99
#100
#101
b10100110111101101001001100000110 #
b00101011010110001110001101011010 $
b001 %
0&
b00000000000000000110000001100011 '
b001010 (
0*
b01111011100111011010111110101100 +
0.
1/
01
13
#102
#103
#104
#105
#106
03
#107
#108
#109
#110
#111
b10100100001111111010110011100101 #
b01001111100100111110110111000101 $
b100 %
1&
b00000000000000000111000001100011 '
b001011 (
1*
b01010100101010111011111100100000 +
13
#112
#113
#114
#115
#116
03
#117
#118
#119
#120
#121
b01100011110001100100100101010100 #
b00100101001011000000000011100000 $
b011 %
0&
b00000000000000000000000001100011 '
b001100 (
0*
b00111110100110100100100001110100 +
1.
0/
11
13
#122
#123
#124
#125
#126
03
#127
#128
#129
#130
#131
b10000100010111111001010010100011 #
b11110110111000111010010101010101 $
b110 %
1&
b00000000000000000001000001100011 '
b001101 (
1*
b10001101011110111110111101001110 +
1/
10
01
02
13
#132
#133
#134
#135
#136
03
#137
#138
#139
#140
#141
b01011001010110101000111000100011 #
b11110111011111101111110000100101 $
b010 %
0&
b00000000000000000100000001100011 '
b001110 (
0*
b01100001110110111001000111111110 +
0.
0/
11
13
#142
#143
#144
#145
#146
03
#147
#148
#149
#150
#151
b10110000100001101000111001011101 #
b01011111000100000011101000111010 $
b101 %
b00000000000000000101000001100011 '
b001111 (
b01010001011101100101010000100011 +
1/
00
01
12
13
#152
#153
#154
#155
#156
03
#157
#158
#159
#160
#161
b00100010111010111001010110000010 #
b01011111101111111101100011000001 $
b001 %
1&
b00000000000000000110000001100011 '
b010000 (
1*
b11000011001010111011110011000001 +
1.
10
02
13
#162
#163
#164
#165
#166
03
#167
#168
#169
#170
#171
b00011110110001011111101111000011 #
b01010100111001011011101000101011 $
b100 %
0&
b00000000000000000111000001100011 '
b010001 (
0*
b11001001111000000100000110011000 +
13
#172
#173
#174
#175
#176
03
#177
#178
#179
#180
#181
b11111101000000110001001000000000 #
b00111001111110101001101100010100 $
b011 %
b00000000000000000000000001100011 '
b010010 (
b11000011000010000111011011101100 +
0.
00
12
13
#182
#183
#184
#185
#186
03
#187
#188
#189
#190
#191
b10101011011100011011000000100001 #
b11001101001100011110000010000110 $
b110 %
1&
b00000000000000000001000001100011 '
b010011 (
1*
b11011110001111111100111110011011 +
1.
10
02
13
#192
#193
#194
#195
#196
03
#197
#198
#199
#200
#201
b00110001011001111111011110100101 #
b00001101011110010000111011001001 $
b010 %
0&
b00000000000000000100000001100011 '
b010100 (
0*
b00100011111011101110100011011100 +
0/
00
11
12
13
#202
#203
#204
#205
#206
03
#207
#208
#209
#210
#211
b10011111101101111100011101010101 #
b10001111010011001001110111100111 $
b101 %
1&
b00000000000000000101000001100011 '
b010101 (
1*
b00010000011010110010100101101110 +
13
#212
#213
#214
#215
#216
03
#217
#218
#219
#220
#221
b01011110001110110110001101110000 #
b10101101000110000000100011110111 $
b001 %
b00000000000000000110000001100011 '
b010110 (
b10110001001000110101101001111001 +
0.
10
02
13
#222
#223
#224
#225
#226
03
#227
#228
#229
#230
#231
b10111100001010010101001111111110 #
b01011010011111111011011001101111 $
b100 %
b00000000000000000111000001100011 '
b010111 (
b01100001101010011001110110001111 +
1/
00
01
12
13
#232
#233
#234
#235
#236
03
#237
#238
#239
#240
#241
b00100010100010100101110000010101 #
b00001000110000010010011001001010 $
b011 %
0&
b00000000000000000000000001100011 '
b011000 (
0*
b00011001110010010011010111001011 +
1.
0/
11
13
#242
#243
#244
#245
#246
03
#247
#248
#249
#250
#251
b10010010110100111000111000000101 #
b01111011001100010100010101010010 $
b110 %
1&
b00000000000000000001000001100011 '
b011001 (
1*
b00010111101000100100100010110011 +
0.
1/
01
13
#252
#253
#254
#255
#256
03
#257
#258
#259
#260
#261
b11110110001010010110001000001101 #
b01010011100100101111001010010100 $
b010 %
b00000000000000000100000001100011 '
b011010 (
b10100010100101100110111101111001 +
13
#262
#263
#264
#265
#266
03
#267
#268
#269
#270
#271
b10000001000000010111001011110101 #
b11000110010100110111100010101000 $
b101 %
0&
b00000000000000000101000001100011 '
b011011 (
0*
b10111010101011011111101001001101 +
1.
10
02
13
#272
#273
#274
#275
#276
03
#277
#278
#279
#280
#281
b10000101110011110000100000110110 #
b00101000100100010011011010110011 $
b001 %
b00000000000000000110000001100011 '
b011100 (
b01011101001111011101000110000011 +
0.
00
12
13
#282
#283
#284
#285
#286
03
#287
#288
#289
#290
#291
b10111000111001011110101111000111 #
b01100100110010101001011010011010 $
b100 %
1&
b00000000000000000111000001100011 '
b011101 (
1*
b01010100000110110101010100101101 +
13
#292
#293
#294
#295
#296
03
#297
#298
#299
#300
#301
b10111111001111101110001110010000 #
b01000100100010111010101010111010 $
b011 %
0&
b00000000000000000000000001100011 '
b011110 (
0*
b01111010101100110011100011010110 +
13
#302
#303
#304
#305
#306
03
#307
#308
#309
#310
#311
b01100101001110110001011111111010 #
b01000010000101001110010101010110 $
b110 %
1&
b00000000000000000001000001100011 '
b011111 (
1*
b00100011001001100011001010100100 +
1.
0/
11
13
#312
#313
#314
#315
#316
03
#317
#318
#319
#320
#321
b11000110011011110101011111101001 #
b01010100000111101100110110111000 $
b010 %
b00000000000000000100000001100011 '
b100000 (
b01110010010100001000101000110001 +
0.
1/
01
13
#322
#323
#324
#325
#326
03
#327
#328
#329
#330
#331
b10011011010000110110010000111110 #
b01100011001101000111000101111001 $
b101 %
0&
b00000000000000000101000001100011 '
b100001 (
0*
b00111000000011101111001011000101 +
13
#332
#333
#334
#335
#336
03
#337
#338
#339
#340
#341
b00100000000101001111000001100011 #
b11100001110001011111100110010101 $
b001 %
1&
b00000000000000000110000001100011 '
b100010 (
1*
b00111110010011101111011011001110 +
0/
10
11
02
13
#342
#343
#344
#345
#346
03
#347
#348
#349
#350
#351
b11001001001110100010001011111000 #
b11110001101011010111101011001111 $
b100 %
0&
b00000000000000000111000001100011 '
b100011 (
0*
b11010111100011001010100000101001 +
1.
1/
01
13
#352
#353
#354
#355
#356
03
#357
#358
#359
#360
#361
b11010111001010110101111001000101 #
b00000110001110000100000011010010 $
b011 %
b00000000000000000000000001100011 '
b100100 (
b11010000111100110001110101110011 +
0.
00
12
13
#362
#363
#364
#365
#366
03
#367
#368
#369
#370
#371
b00010100111100111000011101100001 #
b11100110110111001001010110010101 $
b110 %
1&
b00000000000000000001000001100011 '
b100101 (
1*
b00101110000101101111000111001100 +
0/
10
11
02
13
#372
#373
#374
#375
#376
03
#377
#378
#379
#380
#381
b00010100111001011011010101110100 #
b01101111001101010000110101000010 $
b010 %
b00000000000000000100000001100011 '
b100110 (
b10100101101100001010100000110010 +
1.
1/
01
13
#382
#383
#384
#385
#386
03
#387
#388
#389
#390
#391
b00000010001001011011100000011001 #
b01001100101100101101111010100100 $
b101 %
0&
b00000000000000000101000001100011 '
b100111 (
0*
b10110101011100101101100101110101 +
13
#392
#393
#394
#395
#396
03
#397
#398
#399
#400
#401
b10111000010000000101110110000110 #
b00110100100100000010000111101010 $
b001 %
b00000000000000000110000001100011 '
b101000 (
b10000011101100000011101110011100 +
0.
00
12
13
#402
#403
#404
#405
#406
03
#407
#408
#409
#410
#411
b11111001010101110011110001011100 #
b10101101011011010000101100101010 $
b100 %
1&
b00000000000000000111000001100011 '
b101001 (
1*
b01001011111010100011000100110010 +
1.
0/
11
13
#412
#413
#414
#415
#416
03
#417
#418
#419
#420
#421
b01001101110100110011111101001100 #
b00110110111111010101111110100101 $
b011 %
0&
b00000000000000000000000001100011 '
b101010 (
0*
b00010110110101011101111110100111 +
13
#422
#423
#424
#425
#426
03
#427
#428
#429
#430
#431
b10011000100010011101111101000011 #
b11011111001000100011000011100001 $
b110 %
1&
b00000000000000000001000001100011 '
b101011 (
1*
b10111001011001111010111001100010 +
1/
10
01
02
13
#432
#433
#434
#435
#436
03
#437
#438
#439
#440
#441
b11011101001110100100101001000101 #
b01100110111111101100101101010000 $
b010 %
b00000000000000000100000001100011 '
b101100 (
b01110110001110110111111011110101 +
0.
00
12
13
#442
#443
#444
#445
#446
03
#447
#448
#449
#450
#451
b10110110001011100101011010110011 #
b00101001011000011111000111100101 $
b101 %
0&
b00000000000000000101000001100011 '
b101101 (
0*
b10001100110011000110010011001110 +
13
#452
#453
#454
#455
#456
03
#457
#458
#459
#460
#461
b11100100011101100101001001011111 #
b10101110010011101010010101111010 $
b001 %
b00000000000000000110000001100011 '
b101110 (
b00110110001001111010110011100101 +
1.
0/
11
13
#462
#463
#464
#465
#466
03
#467
#468
#469
#470
#471
b00110001111101010001011111100101 #
b10000101011001101100111110010011 $
b100 %
b00000000000000000111000001100011 '
b101111 (
b10101100100011100100100001010010 +
0.
10
02
13
#472
#473
#474
#475
#476
03
#477
#478
#479
#480
#481
b01101000011111011100110111101001 #
b00001111101111000011011011110001 $
b011 %
b00000000000000000000000001100011 '
b110000 (
b01011000110000011001011011111000 +
1.
00
12
13
#482
#483
#484
#485
#486
03
#487
#488
#489
#490
#491
b10000110011111101101100110101101 #
b10000101111100101101101000010011 $
b110 %
1&
b00000000000000000001000001100011 '
b110001 (
1*
b00000000100010111111111110011010 +
13
#492
#493
#494
#495
#496
03
#497
#498
#499
#500
#501
b10100111000100011111010010100101 #
b00101011000001010001101010101010 $
b010 %
b00000000000000000100000001100011 '
b110010 (
b01111100000011001101100111111011 +
0.
1/
01
13
#502
#503
#504
#505
#506
03
#507
#508
#509
#510
#511
b00001111111101001110010011110010 #
b11100010000010110100111010001001 $
b101 %
b00000000000000000101000001100011 '
b110011 (
b00101101111010011001011001101001 +
0/
10
11
02
13
#512
#513
#514
#515
#516
03
#517
#518
#519
#520
#521
b10101110010010110111110001011101 #
b00000111000000111001010011001001 $
b001 %
0&
b00000000000000000110000001100011 '
b110100 (
0*
b10100111010001111110011110010100 +
1/
00
01
12
13
#522
#523
#524
#525
#526
03
#527
#528
#529
#530
#531
b10110111001000101000110111101111 #
b10001111110101100000101111111010 $
b100 %
1&
b00000000000000000111000001100011 '
b110101 (
1*
b00100111010011001000000111110101 +
1.
0/
11
13
#532
#533
#534
#535
#536
03
#537
#538
#539
#540
#541
b10101000011111010111110001101001 #
b11111001001000101011111111011111 $
b011 %
0&
b00000000000000000000000001100011 '
b110110 (
0*
b10101111010110101011110010001010 +
1/
10
01
02
13
#542
#543
#544
#545
#546
03
#547
#548
#549
#550
#551
b00100011100000001001010100101101 #
b10001100000110111010011101011111 $
b110 %
1&
b00000000000000000001000001100011 '
b110111 (
1*
b10010111011001001110110111001110 +
0.
0/
11
13
#552
#553
#554
#555
#556
03
#557
#558
#559
#560
#561
b11111111110101000011000100000010 #
b00111101101101010101010010010110 $
b010 %
b00000000000000000100000001100011 '
b111000 (
b11000010000111101101110001101100 +
1/
00
01
12
13
#562
#563
#564
#565
#566
03
#567
#568
#569
#570
#571
b10110010111001011100110101100110 #
b01100010111001100110000110000111 $
b101 %
0&
b00000000000000000101000001100011 '
b111001 (
0*
b01001111111111110110101111011111 +
13
#572
#573
#574
#575
#576
03
#577
#578
#579
#580
#581
b11000010101000000011100001100000 #
b00100111001001100101110101011010 $
b001 %
b00000000000000000110000001100011 '
b111010 (
b10011011011110011101101100000110 +
13
#582
#583
#584
#585
#586
03
#587
#588
#589
#590
#591
b11111111000100011100101110100111 #
b10110000001010111110010110111000 $
b100 %
1&
b00000000000000000111000001100011 '
b111011 (
1)
1*
b01001110111001011110010111101111 +
1.
0/
11
13
